{
    "KPlugin": {
        "Description": "Automatically applies settings to GNOME/GTK applications",
        "Description[ar]": "تطبق الإعدادات على تطبيقات غنوم/جي تي كي آليا",
        "Description[az]": "Ayarları avtomatik GNOME/GTK tətbiqlərinə tətbiq etmək",
        "Description[bg]": "Автоматично прилага настройките за GNOME/GTK приложения",
        "Description[ca@valencia]": "Aplica automàticament la configuració a les aplicacions GNOME/GTK",
        "Description[ca]": "Aplica automàticament la configuració a les aplicacions GNOME/GTK",
        "Description[cs]": "Automaticky aplikuje nastavení na aplikace GNOME/GTK",
        "Description[da]": "Anvender automatisk indstillinger på GNOME-/GTK-programmer",
        "Description[de]": "Einstellungen werden automatisch für GNOME/GTK-Anwendungen angewandt",
        "Description[el]": "Εφαρμόζει αυτόματα τις ρυθμίσεις σε GNOME/GTK εφαρμογές",
        "Description[en_GB]": "Automatically applies settings to GNOME/GTK applications",
        "Description[eo]": "Aŭtomate aplikas agordojn al GNOME/GTK-aplikaĵoj",
        "Description[es]": "Aplica preferencias automáticamente a las aplicaciones de GNOME/GTK",
        "Description[et]": "Seadistuste automaatne rakendamine GNOME/GTK rakendustele",
        "Description[eu]": "GNOME/GTK aplikazioei ezarpenak automatikoki ezartzen dizkie",
        "Description[fi]": "Ottaa asetukset automaattisesti käyttöön Gnome/Gtk-sovelluksissa",
        "Description[fr]": "Applique automatiquement les paramètres aux applications GNOME/GTK",
        "Description[gl]": "Aplica a configuración automaticamente a aplicacións de GNOME ou GTK",
        "Description[hi]": "गनोम/जीटीके अनुप्रयोगों में स्वचलित सेटिंग्स लागू करता है",
        "Description[hu]": "Beállítások automatikus alkalmazása GNOME/GTK alkalmazásokra",
        "Description[ia]": "Applica automaticamente preferentias a applicationes de GNOME/GTK",
        "Description[id]": "Secara otomatis menerapkan pengaturan ke aplikasi-aplikasi GNOME/GTK",
        "Description[is]": "Virkjar sjálfvirkt stillingar í GNOME/GTK forritum",
        "Description[it]": "Applica automaticamente le impostazioni alle applicazioni GNOME/GTK",
        "Description[ka]": "GNOME/GTK აპლიკაციებზე პარამეტრების ავტომატური გადატარება",
        "Description[ko]": "자동으로 그놈/GTK 앱에 설정 적용",
        "Description[lt]": "Automatiškai taiko nuostatas GNOME/GTK programoms",
        "Description[nl]": "Automatisch toegepaste instellingen op GNOME/GTK toepassingen",
        "Description[nn]": "Tek automatisk i bruk innstillingane på GNOME-/GTK-program",
        "Description[pa]": "ਗਨੋਮ//GTK ਐਪਲੀਕੇਸ਼ਨਾਂ ਲਈ ਸੈਟਿੰਗਾਂ ਆਪਣੇ-ਆਪ ਲਾਗੂ ਹੁੰਦੀਆਂ ਹਨ",
        "Description[pl]": "Sama nakłada ustawienia na aplikacje GNOME/GTK",
        "Description[pt]": "Aplica automaticamente as configurações nas aplicações do GNOME/GTK",
        "Description[pt_BR]": "Aplica automaticamente as configurações aos aplicativos GNOME/GTK",
        "Description[ro]": "Aplică automat configurări pentru aplicații GNOME/GTK",
        "Description[ru]": "Автоматическое применение изменений для приложений GNOME/GTK",
        "Description[sa]": "GNOME/GTK अनुप्रयोगेषु स्वयमेव समयोजनानि प्रयोजयति",
        "Description[sk]": "Automaticky použije nastavenia pre GNOME/GTK aplikácie",
        "Description[sl]": "Samodejno uveljavi nastavitve za vse programe GNOME/GTK",
        "Description[sv]": "Verkställer automatiskt inställningar för GNOME/GTK-program",
        "Description[tr]": "Ayarları GNOME/GTK uygulamalarına otomatik olarak uygular",
        "Description[uk]": "Автоматично застосовує параметри до програм GNOME/GTK",
        "Description[vi]": "Tự động áp dụng các thiết lập cho các ứng dụng GNOME/GTK",
        "Description[x-test]": "xxAutomatically applies settings to GNOME/GTK applicationsxx",
        "Description[zh_CN]": "自动应用设置到 GNOME/GTK 应用程序",
        "Description[zh_TW]": "自動套用設定到 GNOME/GTK 應用程式",
        "Icon": "gtkconfig",
        "Name": "GNOME/GTK Settings Synchronization Service",
        "Name[ar]": "خدمة مزامنة إعدادات غنوم/جي تي كي",
        "Name[az]": "GNOME/GTK Ayarları Sinxronizasiya Xidməti",
        "Name[bg]": "Настройки на услугата за GNOME/GTK синхронизиране",
        "Name[ca@valencia]": "Servei de sincronització de la configuració de GNOME/GTK",
        "Name[ca]": "Servei de sincronització de la configuració del GNOME/GTK",
        "Name[cs]": "Služba synchronizace nastavení GNOME/GTK",
        "Name[da]": "Synkroniseringstjeneste til GNOME-/GTK-indstillinger",
        "Name[de]": "Dienst zum Abgleich von Einstellungen für GNOME/GTK",
        "Name[el]": "Υπηρεσία συγχρονισμού ρυθμίσεων GNOME/GTK",
        "Name[en_GB]": "GNOME/GTK Settings Synchronisation Service",
        "Name[eo]": "GNOME/GTK-agorda Sinkronigservo",
        "Name[es]": "Servicio de sincronización de preferencias de GNOME/GTK",
        "Name[et]": "GNOME/GTK seadistuste sünkroonimise teenus",
        "Name[eu]": "GNOME/GTK ezarpenak sinkronizatzeko zerbitzua",
        "Name[fi]": "Gnome/Gtk-asetussynkronointipalvelu",
        "Name[fr]": "Service de synchronisation des paramètres GNOME/GTK",
        "Name[gl]": "Servizo de sincronización de configuración con GNOME e GTK",
        "Name[hi]": "गनोम/जीटीके सेटिंग्स के लिए तुल्यकालन सुविधा",
        "Name[hu]": "GNOME/GTK beállítás-szinkronizációs szolgáltatás",
        "Name[ia]": "Servicio de Synchronistion de Preferentias de GNOME/GTK",
        "Name[id]": "Layanan Sinkronisasi Pengaturan GNOME/GTK",
        "Name[is]": "Samstillingarþjónusta GNOME/GTK stillinga",
        "Name[it]": "Servizio di sincronizzazione delle impostazioni GNOME/GTK",
        "Name[ka]": "GNOME/GTK-ის პარამეტრების სინქრონიზაციის სერვისი",
        "Name[ko]": "그놈/GTK 설정 동기화 서비스",
        "Name[lt]": "GNOME/GTK nuostatų sinchronizavimo tarnyba",
        "Name[nl]": "GNOME/GTK instellingen synchronisatieservice",
        "Name[nn]": "GNOME/GTK-oppsettsynkronisering",
        "Name[pa]": "ਗਨੋਮ/GTK ਸੈਟਿੰਗਾਂ ਸੈਕਰੋਨਾਈਜ਼ੇਸ਼ਨ ਸੇਵਾ",
        "Name[pl]": "Usługa synchronizacji ustawień GNOME/GTK",
        "Name[pt]": "Serviço de Sincronização das Configurações do GNOME/GTK",
        "Name[pt_BR]": "Configuração do serviço de sincronização GNOME/GTK",
        "Name[ro]": "Serviciu de sincronizare configurări GNOME/GTK",
        "Name[ru]": "Служба синхронизации параметров GNOME/GTK",
        "Name[sa]": "GNOME/GTK समयोजनानि समन्वयनसेवा",
        "Name[sk]": "Služba na synchronizáciu nastavení GNOME/GTK",
        "Name[sl]": "Nastavitve storitve sinhronizacije GNOME/GTK",
        "Name[sv]": "Synkroniseringstjänst av GNOME/GTK inställningar",
        "Name[tr]": "GNOME/GTK Ayarları Eşzamanlama Hizmeti",
        "Name[uk]": "Служба синхронізації параметрів GNOME/GTK",
        "Name[vi]": "Dịch vụ đồng bộ hoá thiết lập GNOME/GTK",
        "Name[x-test]": "xxGNOME/GTK Settings Synchronization Servicexx",
        "Name[zh_CN]": "GNOME/GTK 设置同步服务",
        "Name[zh_TW]": "GNOME/GTK 設定同步服務",
        "Version": "0.1"
    },
    "X-KDE-Kded-autoload": true,
    "X-KDE-Kded-load-on-demand": false,
    "X-KDE-Kded-phase": 1
}
